# N.Kurz, EE, GSI, 10-Feb-2011
#
# specify nr of Nxyters in use (as function of Exploder id). 
# must be filled consecutively beginning with exploder index 0.
# if 0 specified for exploder index n, the last exploder used for a given sfp id is n-1.
# if for exloder index 0 the number Nxyters is 0, this SFP is not used.
# max 2 Nxyter per exploder! 
#
#  Exploder id:  0  1  2  3  4  5  6  7  8  9 10 10 12 13 14 15  
#                |  |  |  |  |  |  |  |  |  |  |  |  |  |  |  |         
SFP0_EXP_IN_USE  2  0  0  0  0  0  0  0  0  0  0  0  0  0  0  0
SFP1_EXP_IN_USE  0  0  0  0  0  0  0  0  0  0  0  0  0  0  0  0 #x86-58
SFP2_EXP_IN_USE  0  0  0  0  0  0  0  0  0  0  0  0  0  0  0  0
SFP3_EXP_IN_USE  0  0  0  0  0  0  0  0  0  0  0  0  0  0  0  0
#
#
#                             pre trg win   post trg win  test pulse delay  test trg delay 
GLOBAL_PARAM                  0x1fa         0x1fa        0x0f              0x0f           
#
# How to set the total trigger window (it could be changed in step of 62,50 ns):
#
# When "pre trg win" is odd number, then "post trg win" has to be odd number.
# When "pre trg win" is even number, the "post trg win" has to be even number.
# In this case the LSB bit of trigger window is alway 0 (it has to be always "0").
SFP 0 EXP 0 NXY 0 I2C_ADDR    0x22 # wr
SFP 0 EXP 0 NXY 0 RESET       0x84
SFP 0 EXP 0 NXY 0 MASK        0x00 0x00 0x00 0x00 0x00 0x00 0x00 0x00 0x00 0x00 0x00 0x00 0x00 0x00 0x00 0x00
SFP 0 EXP 0 NXY 0 BIAS        0xc5 0xfb 0x30 0x52 0x1f 0x98 0x80 0x98 0x64 0x3e 0x0f 0x25 0x5c 0x4b
SFP 0 EXP 0 NXY 0 CONFIG      0x08 0x08
SFP 0 EXP 0 NXY 0 TEST_DELAY  0x00 0x00
SFP 0 EXP 0 NXY 0 CLOCK_DELAY 0x04 0x10 0x10
SFP 0 EXP 0 NXY 0 THR_TEST    0x35
SFP 0 EXP 0 NXY 0 THR_0_15    0x15 0x15 0x15 0x15 0x15 0x15 0x15 0x15 0x15 0x15 0x15 0x15 0x15 0x15 0x15 0x15 
SFP 0 EXP 0 NXY 0 THR_16_31   0x15 0x15 0x15 0x15 0x15 0x15 0x15 0x15 0x15 0x15 0x15 0x15 0x15 0x15 0x15 0x15
SFP 0 EXP 0 NXY 0 THR_32_47   0x15 0x15 0x15 0x15 0x15 0x15 0x15 0x15 0x15 0x15 0x15 0x15 0x15 0x15 0x15 0x15
SFP 0 EXP 0 NXY 0 THR_48_63   0x15 0x15 0x15 0x15 0x15 0x15 0x15 0x15 0x15 0x15 0x15 0x15 0x15 0x15 0x15 0x15
SFP 0 EXP 0 NXY 0 THR_64_79   0x15 0x15 0x15 0x15 0x15 0x15 0x15 0x15 0x15 0x15 0x15 0x15 0x15 0x15 0x15 0x15
SFP 0 EXP 0 NXY 0 THR_80_95   0x15 0x15 0x15 0x15 0x15 0x15 0x15 0x15 0x15 0x15 0x15 0x15 0x15 0x15 0x15 0x15
SFP 0 EXP 0 NXY 0 THR_96_111  0x15 0x15 0x15 0x15 0x15 0x15 0x15 0x15 0x15 0x15 0x15 0x15 0x15 0x15 0x15 0x15
SFP 0 EXP 0 NXY 0 THR_112_127 0x15 0x15 0x15 0x15 0x15 0x15 0x15 0x15 0x15 0x15 0x15 0x15 0x15 0x15 0x15 0x15
SFP 0 EXP 0 NXY 0 ADC_DCO_PHASE  0x01
#
# setting for negative input signals (Exloder 1: ox0c):
#
SFP 0 EXP 0 NXY 1 I2C_ADDR    0x12 # wr
SFP 0 EXP 0 NXY 1 RESET       0x84
SFP 0 EXP 0 NXY 1 MASK        0x00 0x00 0x00 0x00 0x00 0x00 0x00 0x00 0x00 0x00 0x00 0x00 0x00 0x00 0x00 0x00
SFP 0 EXP 0 NXY 1 BIAS        0xc5 0xfb 0x30 0x52 0x1f 0x76 0x80 0x98 0x64 0x3e 0x0f 0x25 0x5c 0x4b
SFP 0 EXP 0 NXY 1 CONFIG      0x08 0x08
SFP 0 EXP 0 NXY 1 TEST_DELAY  0x00 0x00
SFP 0 EXP 0 NXY 1 CLOCK_DELAY 0x04 0x10 0x10
SFP 0 EXP 0 NXY 1 THR_TEST    0x35
SFP 0 EXP 0 NXY 1 THR_0_15    0x15 0x15 0x15 0x15 0x15 0x15 0x15 0x15 0x15 0x15 0x15 0x15 0x15 0x15 0x15 0x15
SFP 0 EXP 0 NXY 1 THR_16_31   0x15 0x15 0x15 0x15 0x15 0x15 0x15 0x15 0x15 0x15 0x15 0x15 0x15 0x15 0x15 0x15
SFP 0 EXP 0 NXY 1 THR_32_47   0x15 0x15 0x15 0x15 0x15 0x15 0x15 0x15 0x15 0x15 0x15 0x15 0x15 0x15 0x15 0x15
SFP 0 EXP 0 NXY 1 THR_48_63   0x15 0x15 0x15 0x15 0x15 0x15 0x15 0x15 0x15 0x15 0x15 0x15 0x15 0x15 0x15 0x15
SFP 0 EXP 0 NXY 1 THR_64_79   0x15 0x15 0x15 0x15 0x15 0x15 0x15 0x15 0x15 0x15 0x15 0x15 0x15 0x15 0x15 0x15
SFP 0 EXP 0 NXY 1 THR_80_95   0x15 0x15 0x15 0x15 0x15 0x15 0x15 0x15 0x15 0x15 0x15 0x15 0x15 0x15 0x15 0x15
SFP 0 EXP 0 NXY 1 THR_96_111  0x15 0x15 0x15 0x15 0x15 0x15 0x15 0x15 0x15 0x15 0x15 0x15 0x15 0x15 0x15 0x15
SFP 0 EXP 0 NXY 1 THR_112_127 0x15 0x15 0x15 0x15 0x15 0x15 0x15 0x15 0x15 0x15 0x15 0x15 0x15 0x15 0x15 0x15
SFP 0 EXP 0 NXY 1 ADC_DCO_PHASE  0x01
#
#
#
