# N.Kurz, EE, GSI, 10-Feb-2011
# N.Kurz, EE, GSI, 02-Jul-2015:update for GEMEX/NYXOR
#
# specify nr of nXYters in use (as function of GEMEX/NYXOR id). 
# must be filled consecutively beginning with GEMEX/NYXOR index 0.
# if 0 specified for GEMEX/NYXOR index n, the last GEMEX/NYXOR used for a given SFP id is n-1.
# if for GEMEX/NYXOR index 0 the number nXYters is 0, this SFP is not used.
# max 2 nXYter per GEMEX/NYXOR ! 
#
#  GEMEX/NYXOR id:  0  1  2  3  4  5  6  7  8  9 10 10 12 13 14 15  
#                   |  |  |  |  |  |  |  |  |  |  |  |  |  |  |  |         
SFP0_NYX_IN_USE     2  0  0  0  0  0  0  0  0  0  0  0  0  0  0  0
SFP1_NYX_IN_USE     0  0  0  0  0  0  0  0  0  0  0  0  0  0  0  0
SFP2_NYX_IN_USE     0  0  0  0  0  0  0  0  0  0  0  0  0  0  0  0
SFP3_NYX_IN_USE     0  0  0  0  0  0  0  0  0  0  0  0  0  0  0  0
#
#
#                             pre trg win   post trg win  test pulse delay  test trg delay 
GLOBAL_PARAM                  0x030           0x200         0x0b              0x0a
#
#
#
NXY_CTRL SFP 0 NYX 0          0x8c
#
SFP 0 NYX 0 nXY 0 I2C_ADDR    0x22
SFP 0 NYX 0 nXY 0 RESET       0x84
#SFP 0 NYX 0 nXY 0 MASK        0xf7 0xf7 0xf7 0xf7 0xf7 0xf7 0xf7 0xf7 0xf7 0xf7 0xf7 0xf7 0xf7 0xf7 0xf7 0xf7
SFP 0 NYX 0 nXY 0 MASK        0x00 0x00 0x00 0x00 0x00 0x00 0x00 0x00 0x00 0x00 0x00 0x00 0x00 0x00 0x00 0x00
SFP 0 NYX 0 nXY 0 BIAS        0x72 0x97 0x28 0x50 0x1f 0xb7 0x80 0x98 0xf1 0x3e 0x0f 0x25 0x5c 0x4b
SFP 0 NYX 0 nXY 0 CONFIG      0x08 0x0d
SFP 0 NYX 0 nXY 0 TEST_DELAY  0x00 0x00
SFP 0 NYX 0 nXY 0 CLOCK_DELAY 0x80 0x10 0x10
SFP 0 NYX 0 nXY 0 THR_TEST    0x11
SFP 0 NYX 0 nXY 0 THR_0_15    0x11 0x11 0x11 0x11 0x11 0x11 0x11 0x11 0x11 0x11 0x11 0x11 0x11 0x11 0x11 0x11 
SFP 0 NYX 0 nXY 0 THR_16_31   0x11 0x11 0x11 0x11 0x11 0x11 0x11 0x11 0x11 0x11 0x11 0x11 0x11 0x11 0x11 0x11
SFP 0 NYX 0 nXY 0 THR_32_47   0x11 0x11 0x11 0x11 0x11 0x11 0x11 0x11 0x11 0x11 0x11 0x11 0x11 0x11 0x11 0x11
SFP 0 NYX 0 nXY 0 THR_48_63   0x11 0x11 0x11 0x11 0x11 0x11 0x11 0x11 0x11 0x11 0x11 0x11 0x11 0x11 0x11 0x11
SFP 0 NYX 0 nXY 0 THR_64_79   0x11 0x11 0x11 0x11 0x11 0x11 0x11 0x11 0x11 0x11 0x11 0x11 0x11 0x11 0x11 0x11
SFP 0 NYX 0 nXY 0 THR_80_95   0x11 0x11 0x11 0x11 0x11 0x11 0x11 0x11 0x11 0x11 0x11 0x11 0x11 0x11 0x11 0x11
SFP 0 NYX 0 nXY 0 THR_96_111  0x11 0x11 0x11 0x11 0x11 0x11 0x11 0x11 0x11 0x11 0x11 0x11 0x11 0x11 0x11 0x11
SFP 0 NYX 0 nXY 0 THR_112_127 0x11 0x11 0x11 0x11 0x11 0x11 0x11 0x11 0x11 0x11 0x11 0x11 0x11 0x11 0x11 0x11 
SFP 0 NYX 0 nXY 0 ADC_DCO_PHASE  0x01
#                             A     B     C     D
SFP 0 NYX 0 nXY 0 EXT_DACS    0x0f0 0x0f0 0x0f0 0x0f0
#
SFP 0 NYX 0 nXY 1 I2C_ADDR    0x12
SFP 0 NYX 0 nXY 1 RESET       0x85
#SFP 0 NYX 0 nXY 1 MASK        0xf7 0xf7 0xf7 0xf7 0xf7 0xf7 0xf7 0xf7 0xf7 0xf7 0xf7 0xf7 0xf7 0xf7 0xf7 0xf7
SFP 0 NYX 0 nXY 1 MASK        0x00 0x00 0x00 0x00 0x00 0x00 0x00 0x00 0x00 0x00 0x00 0x00 0x00 0x00 0x00 0x00
SFP 0 NYX 0 nXY 1 BIAS        0x72 0x97 0x28 0x50 0x1f 0xb7 0x80 0x98 0xf1 0x3e 0x0f 0x25 0x5c 0x4b
SFP 0 NYX 0 nXY 1 CONFIG      0x08 0x0d
SFP 0 NYX 0 nXY 1 TEST_DELAY  0x00 0x00
SFP 0 NYX 0 nXY 1 CLOCK_DELAY 0x04 0x10 0x10
SFP 0 NYX 0 nXY 1 THR_TEST    0x11
SFP 0 NYX 0 nXY 1 THR_0_15    0x11 0x11 0x11 0x11 0x11 0x11 0x11 0x11 0x11 0x11 0x11 0x11 0x11 0x11 0x11 0x11
SFP 0 NYX 0 nXY 1 THR_16_31   0x11 0x11 0x11 0x11 0x11 0x11 0x11 0x11 0x11 0x11 0x11 0x11 0x11 0x11 0x11 0x11
SFP 0 NYX 0 nXY 1 THR_32_47   0x11 0x11 0x11 0x11 0x11 0x11 0x11 0x11 0x11 0x11 0x11 0x11 0x11 0x11 0x11 0x11
SFP 0 NYX 0 nXY 1 THR_48_63   0x11 0x11 0x11 0x11 0x11 0x11 0x11 0x11 0x11 0x11 0x11 0x11 0x11 0x11 0x11 0x11
SFP 0 NYX 0 nXY 1 THR_64_79   0x11 0x11 0x11 0x11 0x11 0x11 0x11 0x11 0x11 0x11 0x11 0x11 0x11 0x11 0x11 0x11
SFP 0 NYX 0 nXY 1 THR_80_95   0x11 0x11 0x11 0x11 0x11 0x11 0x11 0x11 0x11 0x11 0x11 0x11 0x11 0x11 0x11 0x11
SFP 0 NYX 0 nXY 1 THR_96_111  0x11 0x11 0x11 0x11 0x11 0x11 0x11 0x11 0x11 0x11 0x11 0x11 0x11 0x11 0x11 0x11
SFP 0 NYX 0 nXY 1 THR_112_127 0x11 0x11 0x11 0x11 0x11 0x11 0x11 0x11 0x11 0x11 0x11 0x11 0x11 0x11 0x11 0x11
SFP 0 NYX 0 nXY 1 ADC_DCO_PHASE  0x01
#                             A     B     C     D
SFP 0 NYX 0 nXY 1 EXT_DACS    0x0f0 0x0f0 0x0f0 0x0f0
#
#
#
#
NXY_CTRL SFP 0 NYX 1          0x8c
#
SFP 0 NYX 1 nXY 0 I2C_ADDR    0x22
SFP 0 NYX 1 nXY 0 RESET       0x84
#SFP 0 NYX 1 nXY 0 MASK        0xf7 0xf7 0xf7 0xf7 0xf7 0xf7 0xf7 0xf7 0xf7 0xf7 0xf7 0xf7 0xf7 0xf7 0xf7 0xf7
SFP 0 NYX 1 nXY 0 MASK        0x00 0x00 0x00 0x00 0x00 0xff 0x00 0x00 0x00 0x00 0x00 0x00 0x00 0x00 0x00 0x00
SFP 0 NYX 1 nXY 0 BIAS        0x72 0x97 0x28 0x50 0x1f 0xb7 0x80 0x98 0xf1 0x3e 0x0f 0x25 0x5c 0x4b
SFP 0 NYX 1 nXY 0 CONFIG      0x08 0x08
SFP 0 NYX 1 nXY 0 TEST_DELAY  0x00 0x00
SFP 0 NYX 1 nXY 0 CLOCK_DELAY 0x04 0x10 0x10
SFP 0 NYX 1 nXY 0 THR_TEST    0x11
SFP 0 NYX 1 nXY 0 THR_0_15    0x11 0x11 0x11 0x11 0x11 0x11 0x11 0x11 0x11 0x11 0x11 0x11 0x11 0x11 0x11 0x11 
SFP 0 NYX 1 nXY 0 THR_16_31   0x11 0x11 0x11 0x11 0x11 0x11 0x11 0x11 0x11 0x11 0x11 0x11 0x11 0x11 0x11 0x11
SFP 0 NYX 1 nXY 0 THR_32_47   0x11 0x11 0x11 0x11 0x11 0x11 0x11 0x11 0x11 0x11 0x11 0x11 0x11 0x11 0x11 0x11
SFP 0 NYX 1 nXY 0 THR_48_63   0x11 0x11 0x11 0x11 0x11 0x11 0x11 0x11 0x11 0x11 0x11 0x11 0x11 0x11 0x11 0x11
SFP 0 NYX 1 nXY 0 THR_64_79   0x11 0x11 0x11 0x11 0x11 0x11 0x11 0x11 0x11 0x11 0x11 0x11 0x11 0x11 0x11 0x11
SFP 0 NYX 1 nXY 0 THR_80_95   0x11 0x11 0x11 0x11 0x11 0x11 0x11 0x11 0x11 0x11 0x11 0x11 0x11 0x11 0x11 0x11
SFP 0 NYX 1 nXY 0 THR_96_111  0x11 0x11 0x11 0x11 0x11 0x11 0x11 0x11 0x11 0x11 0x11 0x11 0x11 0x11 0x11 0x11
SFP 0 NYX 1 nXY 0 THR_112_127 0x11 0x11 0x11 0x11 0x11 0x11 0x11 0x11 0x11 0x11 0x11 0x11 0x11 0x11 0x11 0x11 
SFP 0 NYX 1 nXY 0 ADC_DCO_PHASE  0x01
#                             A     B     C     D
SFP 0 NYX 1 nXY 0 EXT_DACS    0x101 0x102 0x103 0x104
#
SFP 0 NYX 1 nXY 1 I2C_ADDR    0x12
SFP 0 NYX 1 nXY 1 RESET       0x85
#SFP 0 NYX 1 nXY 1 MASK        0xf7 0xf7 0xf7 0xf7 0xf7 0xf7 0xf7 0xf7 0xf7 0xf7 0xf7 0xf7 0xf7 0xf7 0xf7 0xf7
SFP 0 NYX 1 nXY 1 MASK        0x00 0x00 0x00 0x00 0x00 0x00 0xff 0x00 0x00 0x00 0x00 0x00 0x00 0x00 0x00 0x00
SFP 0 NYX 1 nXY 1 BIAS        0x72 0x97 0x28 0x50 0x1f 0xb7 0x80 0x98 0xf1 0x3e 0x0f 0x25 0x5c 0x4b
SFP 0 NYX 1 nXY 1 CONFIG      0x08 0x08
SFP 0 NYX 1 nXY 1 TEST_DELAY  0x00 0x00
SFP 0 NYX 1 nXY 1 CLOCK_DELAY 0x04 0x10 0x10
SFP 0 NYX 1 nXY 1 THR_TEST    0x11
SFP 0 NYX 1 nXY 1 THR_0_15    0x11 0x11 0x11 0x11 0x11 0x11 0x11 0x11 0x11 0x11 0x11 0x11 0x11 0x11 0x11 0x11
SFP 0 NYX 1 nXY 1 THR_16_31   0x11 0x11 0x11 0x11 0x11 0x11 0x11 0x11 0x11 0x11 0x11 0x11 0x11 0x11 0x11 0x11
SFP 0 NYX 1 nXY 1 THR_32_47   0x11 0x11 0x11 0x11 0x11 0x11 0x11 0x11 0x11 0x11 0x11 0x11 0x11 0x11 0x11 0x11
SFP 0 NYX 1 nXY 1 THR_48_63   0x11 0x11 0x11 0x11 0x11 0x11 0x11 0x11 0x11 0x11 0x11 0x11 0x11 0x11 0x11 0x11
SFP 0 NYX 1 nXY 1 THR_64_79   0x11 0x11 0x11 0x11 0x11 0x11 0x11 0x11 0x11 0x11 0x11 0x11 0x11 0x11 0x11 0x11
SFP 0 NYX 1 nXY 1 THR_80_95   0x11 0x11 0x11 0x11 0x11 0x11 0x11 0x11 0x11 0x11 0x11 0x11 0x11 0x11 0x11 0x11
SFP 0 NYX 1 nXY 1 THR_96_111  0x11 0x11 0x11 0x11 0x11 0x11 0x11 0x11 0x11 0x11 0x11 0x11 0x11 0x11 0x11 0x11
SFP 0 NYX 1 nXY 1 THR_112_127 0x11 0x11 0x11 0x11 0x11 0x11 0x11 0x11 0x11 0x11 0x11 0x11 0x11 0x11 0x11 0x11
SFP 0 NYX 1 nXY 1 ADC_DCO_PHASE  0x01
#                             A     B     C     D
SFP 0 NYX 1 nXY 1 EXT_DACS    0x101 0x102 0x103 0x104
#
#
#
